<svg width="40" height="40" viewBox="0 0 40 40" fill="none" xmlns="http://www.w3.org/2000/svg">
<circle r="20" transform="matrix(-1 0 0 1 20 20)" fill="#FBC775"/>
<path d="M16.0046 10C16.1361 9.99922 16.2664 10.0258 16.3881 10.0784C16.5098 10.1309 16.6205 10.2083 16.7138 10.3061L24.7045 18.7486C24.7982 18.8467 24.8725 18.9634 24.9232 19.092C24.9739 19.2206 25 19.3585 25 19.4978C25 19.6372 24.9739 19.7751 24.9232 19.9037C24.8725 20.0323 24.7982 20.149 24.7045 20.2471L16.7138 28.6896C16.5257 28.8884 16.2706 29 16.0046 29C15.7386 29 15.4835 28.8884 15.2955 28.6896C15.1074 28.4909 15.0017 28.2214 15.0017 27.9404C15.0017 27.6593 15.1074 27.3898 15.2955 27.1911L22.587 19.4978L15.2955 11.8046C15.2018 11.7065 15.1275 11.5898 15.0768 11.4612C15.0261 11.3326 15 11.1946 15 11.0553C15 10.916 15.0261 10.7781 15.0768 10.6495C15.1275 10.5209 15.2018 10.4042 15.2955 10.3061C15.3888 10.2083 15.4995 10.1309 15.6212 10.0784C15.7429 10.0258 15.8732 9.99922 16.0046 10Z" fill="#2D2D2D"/>
</svg>
