<svg width="35" height="35" viewBox="0 0 35 35" fill="none" xmlns="http://www.w3.org/2000/svg">
    <path fill-rule="evenodd" clip-rule="evenodd"
          d="M3.1762 15.211C3.44864 14.8179 3.89654 14.5833 4.37485 14.5833H30.6249C31.1032 14.5833 31.5511 14.8179 31.8235 15.211C32.0959 15.6041 32.1583 16.1059 31.9903 16.5537L27.6153 28.2204C27.4019 28.7896 26.8577 29.1667 26.2499 29.1667H8.74985C8.14195 29.1667 7.59781 28.7896 7.38437 28.2204L3.00937 16.5537C2.84142 16.1059 2.90376 15.6041 3.1762 15.211ZM6.47922 17.5L9.76047 26.25H25.2392L28.5205 17.5H6.47922Z"
          fill="#FBC775"/>
    <path fill-rule="evenodd" clip-rule="evenodd"
          d="M15.4942 7.61125C16.1231 8.11438 16.2251 9.0321 15.7219 9.66103L9.88861 16.9527C9.38548 17.5816 8.46776 17.6836 7.83883 17.1804C7.20991 16.6773 7.10794 15.7596 7.61108 15.1307L13.4444 7.839C13.9476 7.21008 14.8653 7.10811 15.4942 7.61125Z"
          fill="#FBC775"/>
    <path fill-rule="evenodd" clip-rule="evenodd"
          d="M19.5055 7.61125C18.8766 8.11438 18.7746 9.0321 19.2777 9.66103L25.1111 16.9527C25.6142 17.5816 26.5319 17.6836 27.1609 17.1804C27.7898 16.6773 27.8918 15.7596 27.3886 15.1307L21.5553 7.839C21.0521 7.21008 20.1344 7.10811 19.5055 7.61125Z"
          fill="#FBC775"/>
    <path fill-rule="evenodd" clip-rule="evenodd"
          d="M11.6665 18.9583C12.4719 18.9583 13.1248 19.6113 13.1248 20.4167V23.3333C13.1248 24.1388 12.4719 24.7917 11.6665 24.7917C10.8611 24.7917 10.2082 24.1388 10.2082 23.3333V20.4167C10.2082 19.6113 10.8611 18.9583 11.6665 18.9583Z"
          fill="#FBC775"/>
    <path fill-rule="evenodd" clip-rule="evenodd"
          d="M23.3332 18.9583C24.1386 18.9583 24.7915 19.6113 24.7915 20.4167V23.3333C24.7915 24.1388 24.1386 24.7917 23.3332 24.7917C22.5278 24.7917 21.8749 24.1388 21.8749 23.3333V20.4167C21.8749 19.6113 22.5278 18.9583 23.3332 18.9583Z"
          fill="#FBC775"/>
    <path fill-rule="evenodd" clip-rule="evenodd"
          d="M17.4998 18.9583C18.3053 18.9583 18.9582 19.6113 18.9582 20.4167V23.3333C18.9582 24.1388 18.3053 24.7917 17.4998 24.7917C16.6944 24.7917 16.0415 24.1388 16.0415 23.3333V20.4167C16.0415 19.6113 16.6944 18.9583 17.4998 18.9583Z"
          fill="#FBC775"/>
</svg>
