<svg width="29" height="29" viewBox="0 0 29 29" fill="none" xmlns="http://www.w3.org/2000/svg">
<path d="M19.1611 8.28574H12.4289C12.4289 8.28574 9.32178 8.28577 9.32178 11.3929C9.32178 14.5 12.4289 14.5 12.4289 14.5H16.5718C16.5718 14.5 19.6789 14.5 19.6789 17.6072C19.6789 20.7143 16.5718 20.7143 16.5718 20.7143H9.32178" stroke="#FBC775" stroke-width="2" stroke-linecap="round" stroke-linejoin="round"/>
<rect x="1" y="1" width="27" height="27" rx="13.5" stroke="#FBC775" stroke-width="2"/>
<path d="M14.5006 8.2857C14.2259 8.2857 13.9624 8.17658 13.7682 7.98235C13.574 7.78811 13.4648 7.52468 13.4648 7.24999V6.21427C13.4648 5.93958 13.574 5.67615 13.7682 5.48191C13.9624 5.28768 14.2259 5.17856 14.5006 5.17856C14.7752 5.17856 15.0387 5.28768 15.2329 5.48191C15.4272 5.67615 15.5363 5.93958 15.5363 6.21427V7.24999C15.5363 7.52468 15.4272 7.78811 15.2329 7.98235C15.0387 8.17658 14.7752 8.2857 14.5006 8.2857Z" fill="#FBC775"/>
<path d="M14.5006 23.8214C14.2259 23.8214 13.9624 23.7123 13.7682 23.5181C13.574 23.3238 13.4648 23.0604 13.4648 22.7857V21.75C13.4648 21.4753 13.574 21.2119 13.7682 21.0176C13.9624 20.8234 14.2259 20.7143 14.5006 20.7143C14.7752 20.7143 15.0387 20.8234 15.2329 21.0176C15.4272 21.2119 15.5363 21.4753 15.5363 21.75V22.7857C15.5363 23.0604 15.4272 23.3238 15.2329 23.5181C15.0387 23.7123 14.7752 23.8214 14.5006 23.8214Z" fill="#FBC775"/>
</svg>
