<svg width="1440" height="1317" viewBox="0 0 1440 1317" fill="none" xmlns="http://www.w3.org/2000/svg">
<rect width="1981" height="1583" transform="translate(-275 -266)" fill="#445268"/>
<g filter="url(#filter0_f)">
<rect x="-275" y="72.7386" width="315" height="590" rx="5" transform="rotate(-45 -275 72.7386)" fill="#858585" fill-opacity="0.3"/>
</g>
<g filter="url(#filter1_f)">
<rect x="864" y="-43.2614" width="315" height="590" rx="5" transform="rotate(-45 864 -43.2614)" fill="#858585" fill-opacity="0.3"/>
</g>
<g filter="url(#filter2_f)">
<rect x="1066" y="765.739" width="315" height="590" rx="5" transform="rotate(-45 1066 765.739)" fill="#858585" fill-opacity="0.3"/>
</g>
<g filter="url(#filter3_f)">
<rect x="-231" y="862.448" width="240" height="440" rx="5" transform="rotate(-45 -231 862.448)" fill="#858585" fill-opacity="0.3"/>
</g>
<g filter="url(#filter4_f)">
<rect x="400" y="699.448" width="240" height="440" rx="5" transform="rotate(-45 400 699.448)" fill="#858585" fill-opacity="0.3"/>
</g>
<defs>
<filter id="filter0_f" x="-280" y="-155" width="649.932" height="649.932" filterUnits="userSpaceOnUse" color-interpolation-filters="sRGB">
<feFlood flood-opacity="0" result="BackgroundImageFix"/>
<feBlend mode="normal" in="SourceGraphic" in2="BackgroundImageFix" result="shape"/>
<feGaussianBlur stdDeviation="2.5" result="effect1_foregroundBlur"/>
</filter>
<filter id="filter1_f" x="859" y="-271" width="649.932" height="649.932" filterUnits="userSpaceOnUse" color-interpolation-filters="sRGB">
<feFlood flood-opacity="0" result="BackgroundImageFix"/>
<feBlend mode="normal" in="SourceGraphic" in2="BackgroundImageFix" result="shape"/>
<feGaussianBlur stdDeviation="2.5" result="effect1_foregroundBlur"/>
</filter>
<filter id="filter2_f" x="1061" y="538" width="649.932" height="649.932" filterUnits="userSpaceOnUse" color-interpolation-filters="sRGB">
<feFlood flood-opacity="0" result="BackgroundImageFix"/>
<feBlend mode="normal" in="SourceGraphic" in2="BackgroundImageFix" result="shape"/>
<feGaussianBlur stdDeviation="2.5" result="effect1_foregroundBlur"/>
</filter>
<filter id="filter3_f" x="-251" y="672.742" width="520.833" height="520.833" filterUnits="userSpaceOnUse" color-interpolation-filters="sRGB">
<feFlood flood-opacity="0" result="BackgroundImageFix"/>
<feBlend mode="normal" in="SourceGraphic" in2="BackgroundImageFix" result="shape"/>
<feGaussianBlur stdDeviation="10" result="effect1_foregroundBlur"/>
</filter>
<filter id="filter4_f" x="380" y="509.742" width="520.833" height="520.833" filterUnits="userSpaceOnUse" color-interpolation-filters="sRGB">
<feFlood flood-opacity="0" result="BackgroundImageFix"/>
<feBlend mode="normal" in="SourceGraphic" in2="BackgroundImageFix" result="shape"/>
<feGaussianBlur stdDeviation="10" result="effect1_foregroundBlur"/>
</filter>
</defs>
</svg>
