<svg width="125" height="125" viewBox="0 0 125 125" fill="none" xmlns="http://www.w3.org/2000/svg">
    <path
        d="M0 5C0 2.23858 2.23858 0 5 0H124.211C124.211 0 76.0789 12.4211 42.9561 43.9912C9.83333 75.5614 0 124.211 0 124.211L0 5Z"
        fill="#FBC775"/>
    <path
        d="M16.1204 25.5263C16.0124 25.5263 15.9164 25.4903 15.8324 25.4183C15.7604 25.3343 15.7244 25.2443 15.7244 25.1483C15.7244 25.0643 15.7484 24.9923 15.7964 24.9323L19.7204 19.1003L16.0844 13.5203C16.0484 13.4483 16.0304 13.3763 16.0304 13.3043C16.0304 13.2083 16.0664 13.1243 16.1384 13.0523C16.2104 12.9683 16.3004 12.9263 16.4084 12.9263H19.0184C19.1624 12.9263 19.2824 12.9623 19.3784 13.0343C19.4744 13.1063 19.5644 13.1963 19.6484 13.3043L21.7904 16.5623L23.9684 13.3043C24.1244 13.0523 24.3344 12.9263 24.5984 12.9263H27.0824C27.1784 12.9263 27.2624 12.9683 27.3344 13.0523C27.4184 13.1243 27.4604 13.2083 27.4604 13.3043C27.4604 13.3883 27.4364 13.4603 27.3884 13.5203L23.7344 19.0823L27.6944 24.9323C27.7304 24.9803 27.7484 25.0523 27.7484 25.1483C27.7484 25.2443 27.7124 25.3343 27.6404 25.4183C27.5684 25.4903 27.4784 25.5263 27.3704 25.5263H24.6884C24.4364 25.5263 24.2264 25.4063 24.0584 25.1663L21.6824 21.7103L19.3244 25.1663C19.1924 25.4063 18.9884 25.5263 18.7124 25.5263H16.1204ZM38.1061 16.1663C38.2261 16.1663 38.3281 16.2083 38.4121 16.2923C38.4961 16.3763 38.5381 16.4783 38.5381 16.5983V25.0763C38.5381 25.1963 38.4961 25.3043 38.4121 25.4003C38.3281 25.4843 38.2201 25.5263 38.0881 25.5263H35.9641C35.8441 25.5263 35.7361 25.4843 35.6401 25.4003C35.5561 25.3043 35.5141 25.1963 35.5141 25.0763V20.0363L31.8601 25.2383C31.7281 25.4303 31.5601 25.5263 31.3561 25.5263H29.4481C29.3281 25.5263 29.2261 25.4843 29.1421 25.4003C29.0581 25.3163 29.0161 25.2143 29.0161 25.0943V16.6163C29.0161 16.4843 29.0581 16.3763 29.1421 16.2923C29.2261 16.2083 29.3341 16.1663 29.4661 16.1663H31.5901C31.7221 16.1663 31.8301 16.2083 31.9141 16.2923C31.9981 16.3763 32.0401 16.4843 32.0401 16.6163V21.6383L35.6761 16.4543C35.8081 16.2623 35.9761 16.1663 36.1801 16.1663H38.1061ZM43.3206 25.5263C43.2006 25.5263 43.0926 25.4843 42.9966 25.4003C42.9126 25.3043 42.8706 25.1963 42.8706 25.0763V18.5243H40.1346C40.0146 18.5243 39.9066 18.4823 39.8106 18.3983C39.7266 18.3023 39.6846 18.1943 39.6846 18.0743V16.6163C39.6846 16.4843 39.7266 16.3763 39.8106 16.2923C39.9066 16.2083 40.0146 16.1663 40.1346 16.1663H48.5946C48.7266 16.1663 48.8346 16.2083 48.9186 16.2923C49.0026 16.3763 49.0446 16.4843 49.0446 16.6163V18.0743C49.0446 18.1943 49.0026 18.3023 48.9186 18.3983C48.8346 18.4823 48.7266 18.5243 48.5946 18.5243H45.8586V25.0763C45.8586 25.1963 45.8166 25.3043 45.7326 25.4003C45.6486 25.4843 45.5406 25.5263 45.4086 25.5263H43.3206Z"
        fill="#2D2D2D"/>
</svg>
