<svg width="22" height="26" viewBox="0 0 22 26" fill="none" xmlns="http://www.w3.org/2000/svg">
<path d="M11 25.9649C10.8684 25.9657 10.738 25.9405 10.6161 25.8907C10.4943 25.841 10.3835 25.7676 10.29 25.6749L3.22004 18.6749C2.1993 17.6609 1.38921 16.455 0.836413 15.1267C0.283615 13.7983 -0.000976562 12.3737 -0.000976562 10.9349C-0.000976563 9.49615 0.283615 8.07157 0.836413 6.74321C1.38921 5.41485 2.1993 4.20895 3.22004 3.19494C5.29207 1.14792 8.08738 0 11 0C13.9127 0 16.708 1.14792 18.78 3.19494C19.8008 4.20895 20.6109 5.41485 21.1637 6.74321C21.7165 8.07157 22.0011 9.49615 22.0011 10.9349C22.0011 12.3737 21.7165 13.7983 21.1637 15.1267C20.6109 16.455 19.8008 17.6609 18.78 18.6749L11.71 25.6749C11.6166 25.7676 11.5058 25.841 11.3839 25.8907C11.2621 25.9405 11.1316 25.9657 11 25.9649ZM11 1.96494C8.6133 1.95909 6.32197 2.90152 4.63004 4.58494C3.79676 5.41303 3.13546 6.39772 2.6842 7.48236C2.23293 8.567 2.00062 9.73018 2.00062 10.9049C2.00062 12.0797 2.23293 13.2429 2.6842 14.3275C3.13546 15.4122 3.79676 16.3969 4.63004 17.2249L11 23.5549L17.37 17.2249C18.2033 16.3969 18.8646 15.4122 19.3159 14.3275C19.7671 13.2429 19.9995 12.0797 19.9995 10.9049C19.9995 9.73018 19.7671 8.567 19.3159 7.48236C18.8646 6.39772 18.2033 5.41303 17.37 4.58494C15.6781 2.90152 13.3868 1.95909 11 1.96494Z" fill="black"/>
<path d="M11 15.965C10.0111 15.965 9.0444 15.6717 8.22215 15.1223C7.39991 14.5729 6.75904 13.792 6.3806 12.8784C6.00217 11.9648 5.90315 10.9594 6.09608 9.98952C6.289 9.01961 6.76521 8.1287 7.46447 7.42943C8.16373 6.73017 9.05465 6.25397 10.0246 6.06104C10.9945 5.86812 11.9998 5.96713 12.9134 6.34557C13.8271 6.72401 14.6079 7.36487 15.1574 8.18712C15.7068 9.00936 16 9.97606 16 10.965C16 12.2911 15.4732 13.5628 14.5355 14.5005C13.5979 15.4382 12.3261 15.965 11 15.965ZM11 7.96497C10.4067 7.96497 9.82664 8.14092 9.33329 8.47056C8.83994 8.8002 8.45543 9.26874 8.22836 9.81692C8.0013 10.3651 7.94189 10.9683 8.05765 11.5502C8.1734 12.1322 8.45912 12.6667 8.87868 13.0863C9.29824 13.5058 9.83279 13.7916 10.4147 13.9073C10.9967 14.0231 11.5999 13.9637 12.1481 13.7366C12.6962 13.5095 13.1648 13.125 13.4944 12.6317C13.8241 12.1383 14 11.5583 14 10.965C14 10.1693 13.6839 9.40626 13.1213 8.84365C12.5587 8.28104 11.7957 7.96497 11 7.96497Z" fill="black"/>
</svg>
