<svg width="11" height="2" viewBox="0 0 11 2" fill="none" xmlns="http://www.w3.org/2000/svg">
<path d="M9.52941 1.46606H0.733031C0.538619 1.46606 0.35217 1.38883 0.2147 1.25136C0.07723 1.11389 0 0.927444 0 0.733032C0 0.538619 0.07723 0.35217 0.2147 0.2147C0.35217 0.07723 0.538619 0 0.733031 0H9.52941C9.72382 0 9.91027 0.07723 10.0477 0.2147C10.1852 0.35217 10.2624 0.538619 10.2624 0.733032C10.2624 0.927444 10.1852 1.11389 10.0477 1.25136C9.91027 1.38883 9.72382 1.46606 9.52941 1.46606Z" fill="#C2C2C2"/>
</svg>
