<svg width="38" height="41" viewBox="0 0 38 41" fill="none" xmlns="http://www.w3.org/2000/svg">
<path d="M30.866 23.349C31.0894 22.5191 31.3129 21.6892 31.5203 20.8593L29.0466 18.3855L31.5363 19.8698C32.6375 18.5132 33.7228 17.1726 34.824 15.816L35.4783 11.8421C34.7123 10.0546 33.9462 8.25114 33.1961 6.46366C34.026 6.19235 34.8559 5.90507 35.6858 5.63376C36.021 5.8572 36.3402 6.08063 36.6753 6.28811H38C37.984 5.21881 37.984 4.13355 37.968 3.06426L36.803 1.40445H34.6484C34.2175 1.43637 33.7866 1.45233 33.3557 1.48425C33.5153 1.26081 33.6909 1.03738 33.8505 0.829902C33.4036 0.558588 32.9727 0.271314 32.5258 0C31.4246 0.446871 30.3234 0.877781 29.2222 1.32465C29.3179 1.8992 29.4296 2.48971 29.5254 3.06426L28.6955 1.8992C28.1529 2.04284 27.6102 2.17051 27.0676 2.31415C27.1634 2.8887 27.2751 3.47921 27.3708 4.05375C27.6581 4.13355 27.9454 4.21335 28.2327 4.30911C28.2167 4.50062 28.2167 4.69214 28.2007 4.88366L29.5254 10.1823C29.3658 10.8685 29.2062 11.5548 29.0626 12.257C28.6636 12.4485 28.2646 12.6401 27.8815 12.8316C27.291 12.5762 26.6846 12.3368 26.0941 12.0815C24.8811 11.3154 23.6682 10.5334 22.4553 9.76731C23.4448 10.2301 24.4183 10.7089 25.4078 11.1718C24.6098 9.54388 23.8118 7.91599 23.0138 6.28811C22.9021 5.84124 22.7904 5.41033 22.6787 4.96345C22.1201 4.51658 21.5775 4.08567 21.0189 3.6388H19.0399C18.3217 3.97396 17.6035 4.29315 16.8853 4.6283C16.4385 5.39437 16.0076 6.17639 15.5607 6.94245H14.7308C13.9009 8.21923 13.071 9.48004 12.2411 10.7409C13.0071 9.2566 13.7892 7.7564 14.5552 6.27215V4.94749C13.9966 4.50062 13.454 4.06971 12.8954 3.62284H10.9005C10.1823 3.958 9.4641 4.27719 8.74591 4.61234C7.86813 6.09659 6.97439 7.5968 6.09661 9.08105C4.93155 9.95883 3.78246 10.8526 2.6174 11.7304C1.97901 13.3582 1.34063 14.9861 0.718201 16.614L1.27679 18.2738L3.3675 24.5619L1.88326 28.5359C2.66528 31.5363 3.4473 34.5527 4.22933 37.5531C4.42084 38.6064 4.5964 39.6438 4.78791 40.6971H8.58631C7.85217 38.6064 7.11802 36.4997 6.38388 34.409C6.336 32.43 6.27216 30.4351 6.22428 28.4561C6.95843 27.2431 8.42672 24.8173 8.42672 24.8173C8.42672 24.8173 8.13944 20.6997 8.09156 20.189C8.18732 20.9072 9.11298 24.7375 9.11298 24.7375L17.029 24.8173L18.2579 25.3918L21.3381 21.5136C21.3381 21.5136 19.6783 24.3864 18.8484 25.8227C18.9601 26.5409 19.1835 27.9773 19.1835 27.9773C19.1835 27.9773 21.1625 34.4888 22.168 37.7446C22.2159 38.7341 22.2797 39.7236 22.3276 40.7291H26.3015L24.3225 35.2709C24.2587 33.9462 24.2108 32.6215 24.1629 31.2969V28.9827C24.3225 28.5997 24.4981 28.2167 24.6577 27.8177C25.4078 26.7644 26.1579 25.727 26.924 24.6736C26.8761 23.8437 26.8122 23.0138 26.7644 22.1839C26.9878 23.0138 27.2112 23.8437 27.4187 24.6736C26.9718 25.3918 26.0941 26.8282 26.0941 26.8282C27.9613 27.4347 29.8446 28.0411 31.7278 28.6476C32.2226 29.7009 32.7173 30.7383 33.2121 31.7916C32.3343 32.3981 31.4405 33.0046 30.5628 33.611C31.4405 34.6005 32.3343 35.59 33.2121 36.5955C34.5367 34.8878 35.8614 33.1801 37.186 31.4725C36.5317 29.7648 35.8614 28.0571 35.207 26.3494C33.7387 25.3439 32.3024 24.3544 30.866 23.349Z" fill="#6C95FF"/>
</svg>
