<svg width="11" height="22" viewBox="0 0 11 22" fill="none" xmlns="http://www.w3.org/2000/svg">
<path d="M1.0058 0.000206912C1.1374 -0.000683833 1.26787 0.028819 1.38971 0.0870256C1.51154 0.14523 1.62236 0.230994 1.7158 0.339396L9.7158 9.69631C9.80953 9.80504 9.88392 9.9344 9.93469 10.0769C9.98546 10.2195 10.0116 10.3723 10.0116 10.5267C10.0116 10.6811 9.98546 10.834 9.93469 10.9765C9.88392 11.1191 9.80953 11.2484 9.7158 11.3572L1.7158 20.7141C1.5275 20.9343 1.2721 21.058 1.0058 21.058C0.739498 21.058 0.484105 20.9343 0.295801 20.7141C0.107497 20.4938 0.00170892 20.1951 0.0017089 19.8836C0.00170887 19.5722 0.107497 19.2735 0.295801 19.0532L7.5958 10.5267L0.2958 2.00025C0.202071 1.89151 0.127676 1.76216 0.0769067 1.61963C0.0261378 1.4771 4.28123e-07 1.32422 4.16549e-07 1.16982C4.04975e-07 1.01542 0.0261377 0.862542 0.0769066 0.720014C0.127675 0.577487 0.202071 0.448127 0.2958 0.339397C0.38924 0.230994 0.500054 0.14523 0.621891 0.0870256C0.743729 0.0288191 0.874192 -0.000683807 1.0058 0.000206912Z" fill="white"/>
</svg>
